
FS_SFF8636_A0  0x08038000
DB 0x11 										// Identifier        0
DB 0x00 			     						// Version ID        1
DB 0x00                                         // TWI & CLEI Flat   2
DB 0x00                                         // IntL & Status     3
DB 0x00                                         // Bank0 L0-L7 flag  4
DB 0x00                                         // Bank1 L0-L7 flag  5
DB 0x00                                         // Bank2 L0-L7 flag  6
DB 0x00                                         // Bank3 L0-L7 flag  7
DB 0x00                                         // Module sc flag    8
DB 0x00                                         // Latch VC33-Temp   9
DB 0x00                                         // Latch Aux         10
DB 0x00                                         // Latch Vendor Def. 11
DB 0x00                                         // RSVD              12
DB 0x00                                         // Custom            13
DB 0x00,0x00									// Temperature       14 - 15
DB 0x00,0x00        						    // VCC      	     16 - 17
DB 0x00,0x00                                    // Aux 1             18 - 19
DB 0x00,0x00 								    // Aux 2             20 - 21
DB 0x00,0x00 								    // Aux 3             22 - 23
DB 0x00,0x00 								    // Custom            24 - 25
DB 0x00     								    // Sofret LP         26
DB 0x00,0x00         						    // RSVD              27 - 28
DB 0x00,0x00         						    // Custom            29 - 30
DB 0x00                                         // Mask Chang flag   31
DB 0x00                                         // Mask VCC-Temp     32
DB 0x00                                         // Mask Aux 2        33
DB 0x00     								    // Mask Vendor       34
DB 0x00                                         // RSVD              35
DB 0x00                                         // Custom            36
DB 0x00 								        // RSVD              37
DB 0x00,0x00 								    // RSVD              38 - 39
DB 0x00,0x00 								    // RSVD              40 - 41
DB 0x00,0x00 								    // RSVD              42 - 43
DB 0x00,0x00 								    // RSVD              44 - 45
DB 0x00,0x00 								    // RSVD              46 - 47
DB 0x00,0x00 								    // RSVD              48 - 49
DB 0x00,0x00 								    // RSVD              50 - 51
DB 0x00,0x00 								    // RSVD              52 - 53
DB 0x00,0x00 								    // RSVD              54 - 55
DB 0x00,0x00 								    // RSVD              56 - 57
DB 0x00,0x00,0x00,0x00,0x00,0x00                // RSVD              58 - 63
DB 0x00,0x00                                    // Custom            64 - 65
DB 0x00,0x00,0x00,0x00,0x00,0x00,0x00,0x00      // Custom            66 - 73
DB 0x00,0x00,0x00,0x00,0x00,0x00,0x00,0x00      // Custom            74 - 81
DB 0x00,0x00,0x00                               // Custom            82 - 84
DB 0x01                                         // Module Type       85
DB 0x00,0x00,0x00,0x00,0x00,0x00,0x00,0x00 		// Advertising Codes 86 - 93
DB 0x00,0x00,0x00,0x00,0x00,0x00,0x00,0x00 		// Advertising Codes 94  - 101
DB 0x00,0x00,0x00,0x00,0x00,0x00,0x00,0x00 		// Advertising Codes 102 - 109
DB 0x00,0x00,0x00,0x00,0x00,0x00,0x00,0x00 		// Advertising Codes 110 - 117
DB 0x00,0x00,0x00,0x00                          // PW Change         118 - 121
DB 0x00,0x00,0x00,0x00                          // PW Change         122 - 125
DB 0x00                                         // Bank Select       126
DB 0x00                                         // Page Select       127
end

FS_SFF8636_P0  0x08038400			
DB 0x11 										// Identifier        128
DB 0xCF 			     						// Ext. Identifier   129
DB 0x23                                         // Connector         130
DB 0x00,0x00,0x00,0x00,0x40,0x00,0x02,0x02      // Spec.compliance   131 - 138
DB 0x05                                         // Encoding          139
DB 0xFF                                         // BR,Nominal        140
DB 0x00                                         // Rate Select       141
DB 0x00											// Lenght(SMF,Km)    142
DB 0x00 										// Lenght(OM3 50 )   143
DB 0x00                                         // Leeght(OM2 50 )   144
DB 0x00                                         // Lenght(OM1 62.5)  145
DB 0x00											// Lenght(OM4 50)    146
DB 0x00                                         // Device Technology 147
DB 0x4C,0x55,0x58,0x53,0x48,0x41,0x52,0x45      // Vendor name       148 - 155
DB 0x2D,0x49,0x43,0x54,0x20,0x20,0x20,0x20      // Vendor name       156 - 163
DB 0x1F                                         // Transceiver       164
DB 0x3C,0x18,0xA0                               // Vendor OUI        165 - 167
DB 0x00,0x00,0x00,0x00,0x00,0x00,0x00,0x00      // Vendor PN         168 - 175
DB 0x00,0x00,0x00,0x00,0x00,0x00,0x00,0x00      // Vendor PN         176 - 183
DB 0x00,0x00                                    // Vendor rev        184 - 185
DB 0x00,0x00                                    // Wavelength        186 - 187
DB 0x00,0x00                                    // Wave Tolerance    188 - 189
DB 0x00 										// Max Case Temp     190
DB 0x00 										// CC_BASE           191
DB 0x41 										// Link Code         192
DB 0x00,0x00,0x00								// Options           193 - 195
DB 0x00,0x00,0x00,0x00,0x00,0x00,0x00,0x00      // Vendor SN         196 - 203
DB 0x00,0x00,0x00,0x00,0x00,0x00,0x00,0x00      // Vendor SN         204 - 211
DB 0x00,0x00,0x00,0x00,0x00,0x00,0x00,0x00      // Data code         212 - 219
DB 0x00                                         // DM Type           220
DB 0x00                                         // Enhanced Options  221
DB 0x00                                         // BR,nominal        222
DB 0x00                                         // CC_EXT            223
DB 0x00,0x00,0x00,0x00,0x00,0x00,0x00,0x00      // Vendor Specific   224 - 255
DB 0x00,0x00,0x00,0x00,0x00,0x00,0x00,0x00      // Vendor Specific
DB 0x00,0x00,0x00,0x00,0x00,0x00,0x00,0x00      // Vendor Specific
DB 0x00,0x00,0x00,0x00,0x00,0x00,0x00,0x00      // Vendor Specific
end

FS_SFF8636_P1  0x08038800	
DW 0x0000 										// RSVD                    128 - 129
DW 0x0000 			     						// RSVD                    130 - 131
DW 0x0000 										// RSVD                    132 - 133
DW 0x0000 			     						// RSVD                    134 - 135
DW 0x0000                                       // RSVD                    136 - 137
DW 0x0000                                       // RSVD                    138 - 139
DW 0x0000                                       // RSVD                    140 - 141
DW 0x0000                                       // RSVD                    142 - 143
DW 0x0000 										// RSVD                    144 - 145
DW 0x0000 			     						// RSVD                    146 - 147
DW 0x0000 										// RSVD                    148 - 149
DW 0x0000 			     						// RSVD                    150 - 151
DW 0x0000                                       // RSVD                    152 - 153
DW 0x0000                                       // RSVD                    154 - 155
DW 0x0000                                       // RSVD                    156 - 157
DW 0x0000                                       // RSVD                    158 - 159
DW 0x0000                                       // RSVD                    160 - 161
DW 0x0000                                       // RSVD                    162 - 163
DW 0x0000                                       // RSVD                    164 - 165
DW 0x0000                                       // RSVD                    166 - 167
DW 0x0000                                       // RSVD                    168 - 169
DW 0x0000                                       // RSVD                    170 - 171
DW 0x0000                                       // RSVD                    172 - 173
DW 0x0000                                       // RSVD                    174 - 175
DW 0x0000 										// RSVD                    176 - 177
DW 0x0000 			     						// RSVD                    178 - 179
DW 0x0000 										// RSVD                    180 - 181
DW 0x0000 			     						// RSVD                    182 - 183
DW 0x0000 										// RSVD                    184 - 185
DW 0x0000 			     						// RSVD                    186 - 187
DW 0x0000 										// RSVD                    188 - 189
DW 0x0000 			     						// RSVD                    190 - 191
DW 0x0000 										// RSVD                    192 - 193
DW 0x0000 			     						// RSVD                    194 - 195
DW 0x0000 										// RSVD                    196 - 197
DW 0x0000 			     						// RSVD                    198 - 199
DW 0x0000                                       // RSVD                    200 - 201
DW 0x0000                                       // RSVD                    202 - 203
DW 0x0000                                       // RSVD                    204 - 205
DW 0x0000                                       // RSVD                    206 - 207
DW 0x0000                                       // RSVD                    208 - 209
DW 0x0000                                       // RSVD                    210 - 211
DW 0x0000                                       // RSVD                    212 - 213
DW 0x0000                                       // RSVD                    214 - 215
DW 0x0000                                       // RSVD                    216 - 217
DW 0x0000                                       // RSVD                    218 - 219
DW 0x0000                                       // RSVD                    220 - 221
DW 0x0000                                       // RSVD                    222 - 223
DW 0x0000                                       // RSVD                    224 - 225
DW 0x0000                                       // RSVD                    226 - 227
DW 0x0000                                       // RSVD                    228 - 229
DW 0x0000                                       // RSVD                    230 - 231
DW 0x0000                                       // RSVD                    232 - 233
DW 0x0000                                       // RSVD                    234 - 235
DW 0x0000                                       // RSVD                    236 - 237
DW 0x0000                                       // RSVD                    238 - 239
DW 0x0000                                       // RSVD                    240 - 241
DW 0x0000                                       // RSVD                    242 - 243
DW 0x0000                                       // RSVD                    244 - 245
DW 0x0000                                       // RSVD                    246 - 247
DW 0x0000                                       // RSVD                    248 - 249
DW 0x0000                                       // RSVD                    250 - 251
DW 0x0000                                       // RSVD                    252 - 253
DW 0x0000                                       // RSVD                    254 - 255
end

FS_SFF8636_P2  0x08038C00	
DW 0x0000 										// RSVD                    128 - 129
DW 0x0000 			     						// RSVD                    130 - 131
DW 0x0000 										// RSVD                    132 - 133
DW 0x0000 			     						// RSVD                    134 - 135
DW 0x0000                                       // RSVD                    136 - 137
DW 0x0000                                       // RSVD                    138 - 139
DW 0x0000                                       // RSVD                    140 - 141
DW 0x0000                                       // RSVD                    142 - 143
DW 0x0000 										// RSVD                    144 - 145
DW 0x0000 			     						// RSVD                    146 - 147
DW 0x0000 										// RSVD                    148 - 149
DW 0x0000 			     						// RSVD                    150 - 151
DW 0x0000                                       // RSVD                    152 - 153
DW 0x0000                                       // RSVD                    154 - 155
DW 0x0000                                       // RSVD                    156 - 157
DW 0x0000                                       // RSVD                    158 - 159
DW 0x0000                                       // RSVD                    160 - 161
DW 0x0000                                       // RSVD                    162 - 163
DW 0x0000                                       // RSVD                    164 - 165
DW 0x0000                                       // RSVD                    166 - 167
DW 0x0000                                       // RSVD                    168 - 169
DW 0x0000                                       // RSVD                    170 - 171
DW 0x0000                                       // RSVD                    172 - 173
DW 0x0000                                       // RSVD                    174 - 175
DW 0x0000 										// RSVD                    176 - 177
DW 0x0000 			     						// RSVD                    178 - 179
DW 0x0000 										// RSVD                    180 - 181
DW 0x0000 			     						// RSVD                    182 - 183
DW 0x0000 										// RSVD                    184 - 185
DW 0x0000 			     						// RSVD                    186 - 187
DW 0x0000 										// RSVD                    188 - 189
DW 0x0000 			     						// RSVD                    190 - 191
DW 0x0000 										// RSVD                    192 - 193
DW 0x0000 			     						// RSVD                    194 - 195
DW 0x0000 										// RSVD                    196 - 197
DW 0x0000 			     						// RSVD                    198 - 199
DW 0x0000                                       // RSVD                    200 - 201
DW 0x0000                                       // RSVD                    202 - 203
DW 0x0000                                       // RSVD                    204 - 205
DW 0x0000                                       // RSVD                    206 - 207
DW 0x0000                                       // RSVD                    208 - 209
DW 0x0000                                       // RSVD                    210 - 211
DW 0x0000                                       // RSVD                    212 - 213
DW 0x0000                                       // RSVD                    214 - 215
DW 0x0000                                       // RSVD                    216 - 217
DW 0x0000                                       // RSVD                    218 - 219
DW 0x0000                                       // RSVD                    220 - 221
DW 0x0000                                       // RSVD                    222 - 223
DW 0x0000                                       // RSVD                    224 - 225
DW 0x0000                                       // RSVD                    226 - 227
DW 0x0000                                       // RSVD                    228 - 229
DW 0x0000                                       // RSVD                    230 - 231
DW 0x0000                                       // RSVD                    232 - 233
DW 0x0000                                       // RSVD                    234 - 235
DW 0x0000                                       // RSVD                    236 - 237
DW 0x0000                                       // RSVD                    238 - 239
DW 0x0000                                       // RSVD                    240 - 241
DW 0x0000                                       // RSVD                    242 - 243
DW 0x0000                                       // RSVD                    244 - 245
DW 0x0000                                       // RSVD                    246 - 247
DW 0x0000                                       // RSVD                    248 - 249
DW 0x0000                                       // RSVD                    250 - 251
DW 0x0000                                       // RSVD                    252 - 253
DW 0x0000                                       // RSVD                    254 - 255
end

FS_SFF8636_P3  0x08039000	
//    0 1     3 4
DW 0x8000 										// Temp High Alarm         128 - 129
DW 0x0000 			     						// Temp Low  Alarm         130 - 131
DW 0x0000 										// Temp High Warning       132 - 133
DW 0x0000 			     						// Temp Low  Warning       134 - 135
DW 0x0000                                       // RSVD                    136 - 137
DW 0x0000                                       // RSVD                    138 - 139
DW 0x0000                                       // RSVD                    140 - 141
DW 0x0000                                       // RSVD                    142 - 143

DW 0x0000 										// Voltage High Alarm      144 - 145
DW 0x0000 			     						// Voltage Low  Alarm      146 - 147
DW 0x0000 										// Voltage High Warning    148 - 149
DW 0x0000 			     						// Voltage Low  Warning    150 - 151
DW 0x0000                                       // RSVD                    152 - 153
DW 0x0000                                       // RSVD                    154 - 155
DW 0x0000                                       // RSVD                    156 - 157
DW 0x0000                                       // RSVD                    158 - 159

DW 0x0000                                       // RSVD                    160 - 161
DW 0x0000                                       // RSVD                    162 - 163
DW 0x0000                                       // RSVD                    164 - 165
DW 0x0000                                       // RSVD                    166 - 167
DW 0x0000                                       // RSVD                    168 - 169
DW 0x0000                                       // RSVD                    170 - 171
DW 0x0000                                       // RSVD                    172 - 173
DW 0x0000                                       // RSVD                    174 - 175

DW 0x0000 										// RXP High Alarm          176 - 177
DW 0x0000 			     						// RXP Low  Alarm          178 - 179
DW 0x0000 										// RXP High Warning        180 - 181
DW 0x0000 			     						// RXP Low  Warning        182 - 183

DW 0x0000 										// Bias High Alarm         184 - 185
DW 0x0000 			     						// Bias Low  Alarm         186 - 187
DW 0x0000 										// Bias High Warning       188 - 189
DW 0x0000 			     						// Bias Low  Warning       190 - 191

DW 0x0000 										// TXP High Alarm          192 - 193
DW 0x0000 			     						// TXP Low  Alarm          194 - 195
DW 0x0000 										// TXP High Warning        196 - 197
DW 0x0000 			     						// TXP Low  Warning        198 - 199

DW 0x0000                                       // RSVD                    200 - 201
DW 0x0000                                       // RSVD                    202 - 203
DW 0x0000                                       // RSVD                    204 - 205
DW 0x0000                                       // RSVD                    206 - 207

DW 0x0000                                       // RSVD                    208 - 209
DW 0x0000                                       // RSVD                    210 - 211
DW 0x0000                                       // RSVD                    212 - 213
DW 0x0000                                       // RSVD                    214 - 215
DW 0x0000                                       // Vendor Spec.            216 - 217
DW 0x0000                                       // Vendor Spec.            218 - 219
DW 0x0000                                       // Vendor Spec.            220 - 221
DW 0x0000                                       // Vendor Spec.            222 - 223

DB 0x00                                         // TRx EQ EMP              224
DB 0x00                                         // Rx OUPUT Amplitude      225
DB 0x00,0x00,0x00,0x00,0x00,0x00,0x00,0x00      // RSVD                    226 - 233

DB 0x66                                         // TX12 EQ Control         234
DB 0x66                                         // TX34 EQ Control         235
DB 0x00                                         // RX12 EMP Control        236
DB 0x00                                         // RX32 EMP Control        237
DB 0x22                                         // RX12 OUTPUT SW          238
DB 0x22                                         // RX34 OUTPUT SW          239
DB 0x00                                         // TRX SQ DIS              240
DB 0x00                                         // TRX EQ_EMP_DIS          241
DB 0x00                                         // RXP12 MASK              242
DB 0x00                                         // RXP34 MASK              243
DB 0x00                                         // TXB12 MASK              244
DB 0x00                                         // TXB34 MASK              245
DB 0x00											// TXP12 MASK              246
DB 0x00                                         // TXP34 MASK              247
DB 0x00,0x00,0x00,0x00,0x00,0x00,0x00,0x00      // RSVD                    248 - 255
end

FS_MA38345_P82 0x0803AC00
DB 0x52                                         // 0x00 CHIPID            0x80
DB 0x01                                         // 0x01 RWVID             0x81
DB 0x00                                         // 0x17 LOS_STATUS        0x82
DB 0x00											// 0x18 LOL_LOS           0x83
DB 0x00                                         // 0x1A TxFault_Status    0x84
DB 0x00                                         // 0x68 ADC_OUT_MSB       0x85
DB 0x00											// 0x69 ADC_OUT_LSB       0x86
DB 0x00,0x00,0x00,0x00   						// RSVD                   0x87 - 0x8A
DB 0x00											// 0x02 RESET             0x8B
DB 0x00											// 0x03 MONITORS          0x8C
DB 0x04											// 0x04 CDRCTRL           0x8D
DB 0x00											// 0x05 I2C_AD_MODE	      0x8E
DB 0x00											// 0x10 CH_MODE           0x8F
DB 0xFF											// 0x16 LOS_LOL_MASK      0x90
DB 0x00											// 0x19 LOS_LOL_ALARM     0x91
DB 0xFF											// 0x1B TxFault MASK      0x92
DB 0x00											// 0x1C TXFault Alarm     0x93
DB 0x70 										// 0x1D IGnore_TxFault    0x94
DB 0x08 										// 0x1E IC_RSVD_1E        0x95
DB 0x00											// 0x21 LOS_THRS          0x96
DB 0x00											// 0x22 LOS HYST AUSQ     0x97
DB 0x0A											// 0x25 Rvcsel_CH0        0x98
DB 0x0A											// 0x26 Rvcsel_CH1        0x99
DB 0x0A											// 0x27 Rvcsel_CH2        0x9A
DB 0x0A											// 0x28 Rvcsel_CH3        0x9B
DB 0x0F											// 0x29 IC_RSVD_29        0x9C
DB 0xF0 										// 0x40 OUTPUT MUTE       0x9D
DB 0x00											// 0x41 TX_DISABLE        0x9E
DB 0x28 										// 0x42 IBias0            0x9F
DB 0x28											// 0x43 IBias1            0xA0
DB 0x28 										// 0x44 IBias2            0xA1
DB 0x28											// 0x45 IBias3            0xA2
DB 0x77 										// 0x46 IMod0             0xA3
DB 0x77											// 0x47 IMod1             0xA4
DB 0x77 										// 0x48 IMod2             0xA5
DB 0x77											// 0x49 IMod3             0xA6
DB 0x00 										// 0x4A AC_Gain_CH0       0xA7
DB 0x00											// 0x4B AC_Gain_CH1       0xA8
DB 0x00 										// 0x4C AC_Gain_CH2       0xA9
DB 0x00											// 0x4D AC_Gain_CH3       0xAA
DB 0x14 										// 0x4F DC_Gain_CH0       0xAB
DB 0x14											// 0x50 DC_Gain_CH1       0xAC
DB 0x14 										// 0x51 DC_Gain_CH2       0xAD
DB 0x14											// 0x52 DC_Gain_CH3       0xAE
DB 0x04											// 0x5A IC_RSVD_5A        0xAF
DB 0x00											// 0x5E Ibumin            0xB0
DB 0x00                                         // 0x5F Burmin_EN         0xB1
DB 0x10                                         // 0x60 ADC_Config0       0xB2
DB 0x00                                         // 0x62 ADC_Config2       0xB3
DB 0x08                                         // 0x64 IC_RSVD_64        0xB4
DB 0x00                                         // 0x91 Driver_ADC_CHSEL  0xB5
DB 0x00                                         // 0x92 Driver_ADC_Measmt 0xB6
DB 0x00                                         // 0xB7
DB 0x00,0x00,0x00,0x00,0x00,0x00,0x00,0x00      // 0xB8 - 0xBF
DB 0x00,0x00,0x00,0x00,0x00,0x00,0x00,0x00      // 0xC0 - 0xC7
DB 0x00,0x00,0x00,0x00,0x00,0x00,0x00,0x00      // 0xC8 - 0xCF
DB 0x00,0x00,0x00,0x00,0x00,0x00,0x00,0x00      // 0xD0 - 0xD7
DB 0x00,0x00,0x00,0x00,0x00,0x00,0x00,0x00      // 0xD8 - 0xDF
DB 0x00,0x00,0x00,0x00,0x00,0x00,0x00,0x00      // 0xE0 - 0xE7
DB 0x00,0x00,0x00,0x00,0x00,0x00,0x00,0x00      // 0xE8 - 0xEF
DB 0x00,0x00,0x00,0x00,0x00,0x00,0x00,0x00      // 0xF0 - 0xF7
DB 0x00,0x00,0x00,0x00,0x00,0x00,0x00,0x00      // 0xF8 - 0xFF
end

FS_MA38434_P8A 0x0803B400
DB 0x00 										// PAGE 00 REG 00  CHIP_ID                     ADDRESS 80
DB 0x00 										// PAGE 00 REG 01  REVID                       ADDRESS 81
DB 0x00 										// PAGE 00 REG 03  I2C_ADR_MODE                ADDRESS 82
DB 0xA8 										// PAGE 20 REG 00  OUTPUT_EQ_CH0               ADDRESS 83
DB 0x09 										// PAGE 20 REG 02  REFERNCE_SWING_CH0          ADDRESS 84
DB 0x00 										// PAGE 20 REG 03  Manual_VGA0_Filter_CH0      ADDRESS 85
DB 0x00 										// PAGE 20 REG 04  Manual_VGA1_Filter_CH0      ADDRESS 86
DB 0x00 										// PAGE 20 REG 05  Manual_VGA2_Filter_CH0      ADDRESS 87
DB 0x0F 										// PAGE 20 REG 0A  Tune_REF_SEL_LOW_CH0        ADDRESS 88
DB 0x20 										// PAGE 20 REG 0D  TIA_Filter_Swing_CH0        ADDRESS 89
DB 0x38 										// PAGE 20 REG 19  LOS_THRESH_HST_CH0          ADDRESS 8A
DB 0x0D 										// PAGE 20 REG 1A  LOS_THRESHOLD_CH0           ADDRESS 8B
DB 0x00 										// PAGE 20 REG C0  AGC_LSB_CH0                 ADDRESS 8C
DB 0x00 										// PAGE 20 REG C1  AGC_MSB_CH0                 ADDRESS 8D
DB 0x35 										// PAGE 20 REG C2  AGC_AD_MODE_CH0             ADDRESS 8E
DB 0x00 										// PAGE 20 REG E0  Bias_LSB_CH0                ADDRESS 8F
DB 0x00 										// PAGE 20 REG E1  Bias_MSB_CH0                ADDRESS 90
DB 0x25 										// PAGE 20 REG E2  B_AD_MODE_CH0               ADDRESS 91
DB 0x00 										// PAGE 20 REG D0  DCD_LSB_CH0                 ADDRESS 92
DB 0x00 										// PAGE 20 REG D1  DCD_MSB_CH0                 ADDRESS 93
DB 0x1D 										// PAGE 20 REG D2  DCD_AD_MODE_CH0             ADDRESS 94
DB 0x04 										//                 RSVD_0_CH0                  ADDRESS 95
DB 0xE4 										//                 RSVD_1_CH0                  ADDRESS 96
DB 0x00 										//                 RSVD_2_CH0                  ADDRESS 97
DB 0x00 										//                 RSVD_3_CH0                  ADDRESS 98
DB 0xA8 										// PAGE 21 REG 00  OUTPUT_EQ_CH1               ADDRESS 99
DB 0x09 										// PAGE 21 REG 02  REFERNCE_SWING_CH1          ADDRESS 9A
DB 0x00 										// PAGE 21 REG 03  Manual_VGA0_Filter_CH1      ADDRESS 9B
DB 0x00 										// PAGE 21 REG 04  Manual_VGA1_Filter_CH1      ADDRESS 9C
DB 0x00 										// PAGE 21 REG 05  Manual_VGA2_Filter_CH1      ADDRESS 9D
DB 0x0F 										// PAGE 21 REG 0A  Tune_REF_SEL_LOW_CH1        ADDRESS 9E
DB 0x20 										// PAGE 21 REG 0D  TIA_Filter_Swing_CH1        ADDRESS 9F
DB 0x38 										// PAGE 21 REG 19  LOS_THRESH_HST_CH1          ADDRESS A0
DB 0x0D 										// PAGE 21 REG 1A  LOS_THRESHOLD_CH1           ADDRESS A1
DB 0x00 										// PAGE 21 REG C0  AGC_LSB_CH1                 ADDRESS A2
DB 0x00 										// PAGE 21 REG C1  AGC_MSB_CH1                 ADDRESS A3
DB 0x35 										// PAGE 21 REG C2  AGC_AD_MODE_CH1             ADDRESS A4
DB 0x00 										// PAGE 21 REG E0  Bias_LSB_CH1                ADDRESS A5
DB 0x00 										// PAGE 21 REG E1  Bias_MSB_CH1                ADDRESS A6
DB 0x25 										// PAGE 21 REG E2  B_AD_MODE_CH1               ADDRESS A7
DB 0x00 										// PAGE 21 REG D0  DCD_LSB_CH1                 ADDRESS A8
DB 0x00 										// PAGE 21 REG D1  DCD_MSB_CH1                 ADDRESS A9
DB 0x1D 										// PAGE 21 REG D2  DCD_AD_MODE_CH1             ADDRESS AA
DB 0x04 										//                 RSVD_0_CH1                  ADDRESS AB
DB 0xE4 										//                 RSVD_1_CH1                  ADDRESS AC
DB 0x00 										//                 RSVD_2_CH1                  ADDRESS AD
DB 0x00 										//                 RSVD_3_CH1                  ADDRESS AE
DB 0xA8 										// PAGE 22 REG 00  OUTPUT_EQ_CH2               ADDRESS AF
DB 0x09 										// PAGE 22 REG 02  REFERNCE_SWING_CH2          ADDRESS B0
DB 0x00 										// PAGE 22 REG 03  Manual_VGA0_Filter_CH2      ADDRESS B1
DB 0x00 										// PAGE 22 REG 04  Manual_VGA1_Filter_CH2      ADDRESS B2
DB 0x00 										// PAGE 22 REG 05  Manual_VGA2_Filter_CH2      ADDRESS B3
DB 0x0F 										// PAGE 22 REG 0A  Tune_REF_SEL_LOW_CH2        ADDRESS B4
DB 0x20 										// PAGE 22 REG 0D  TIA_Filter_Swing_CH2        ADDRESS B5
DB 0x38 										// PAGE 22 REG 19  LOS_THRESH_HST_CH2          ADDRESS B6
DB 0x0D 										// PAGE 22 REG 1A  LOS_THRESHOLD_CH2           ADDRESS B7
DB 0x00 										// PAGE 22 REG C0  AGC_LSB_CH2                 ADDRESS B8
DB 0x00 										// PAGE 22 REG C1  AGC_MSB_CH2                 ADDRESS B9
DB 0x35 										// PAGE 22 REG C2  AGC_AD_MODE_CH2             ADDRESS BA
DB 0x00 										// PAGE 22 REG E0  Bias_LSB_CH2                ADDRESS BB
DB 0x00 										// PAGE 22 REG E1  Bias_MSB_CH2                ADDRESS BC
DB 0x25 										// PAGE 22 REG E2  B_AD_MODE_CH2               ADDRESS BD
DB 0x00 										// PAGE 22 REG D0  DCD_LSB_CH2                 ADDRESS BE
DB 0x00 										// PAGE 22 REG D1  DCD_MSB_CH2                 ADDRESS BF
DB 0x1D 										// PAGE 22 REG D2  DCD_AD_MODE_CH2             ADDRESS C0
DB 0x04 										//                 RSVD_0_CH2                  ADDRESS C1
DB 0xE4 										//                 RSVD_1_CH2                  ADDRESS C2
DB 0x00 										//                 RSVD_2_CH2                  ADDRESS C3
DB 0x00 										//                 RSVD_3_CH2                  ADDRESS C4
DB 0xA8 										// PAGE 23 REG 00  OUTPUT_EQ_CH3               ADDRESS C5
DB 0x09  										// PAGE 23 REG 02  REFERNCE_SWING_CH3          ADDRESS C6
DB 0x00 										// PAGE 23 REG 03  Manual_VGA0_Filter_CH3      ADDRESS C7
DB 0x00 										// PAGE 23 REG 04  Manual_VGA1_Filter_CH3      ADDRESS C8
DB 0x00 										// PAGE 23 REG 05  Manual_VGA2_Filter_CH3      ADDRESS C9
DB 0x0F 										// PAGE 23 REG 0A  Tune_REF_SEL_LOW_CH3        ADDRESS CA
DB 0x20 										// PAGE 23 REG 0D  TIA_Filter_Swing_CH3        ADDRESS CB
DB 0x38 										// PAGE 23 REG 19  LOS_THRESH_HST_CH3          ADDRESS CC
DB 0x0D 										// PAGE 23 REG 1A  LOS_THRESHOLD_CH3           ADDRESS CD
DB 0x00 										// PAGE 23 REG C0  AGC_LSB_CH3                 ADDRESS CE
DB 0x00 										// PAGE 23 REG C1  AGC_MSB_CH3                 ADDRESS CF
DB 0x35 										// PAGE 23 REG C2  AGC_AD_MODE_CH3             ADDRESS D0
DB 0x00 										// PAGE 23 REG E0  Bias_LSB_CH3                ADDRESS D1
DB 0x00 										// PAGE 23 REG E1  Bias_MSB_CH3                ADDRESS D2
DB 0x25 										// PAGE 23 REG E2  B_AD_MODE_CH3               ADDRESS D3
DB 0x00 										// PAGE 23 REG D0  DCD_LSB_CH3                 ADDRESS D4
DB 0x00 										// PAGE 23 REG D1  DCD_MSB_CH3                 ADDRESS D5
DB 0x1D 										// PAGE 23 REG D2  DCD_AD_MODE_CH3             ADDRESS D6
DB 0x04 										//                 RSVD_0_CH3                  ADDRESS D7
DB 0xE4 										//                 RSVD_1_CH3                  ADDRESS D8
DB 0x00 										//                 RSVD_2_CH3                  ADDRESS D9
DB 0x00 										//                 RSVD_3_CH3                  ADDRESS DA
DB 0x00 										// RSVD_BUFFER_0                               ADDRESS DB
DB 0x3F 										// RSVD_BUFFER_1                               ADDRESS DC
DB 0x00 										// RSVD_BUFFER_2                               ADDRESS DD
DB 0x00 										// RSVD_BUFFER_3                               ADDRESS DE
DB 0x3F 										// RSVD_BUFFER_4                               ADDRESS DF
DB 0x00 										// RSVD_BUFFER_5                               ADDRESS E0
DB 0x00 										// RSVD_BUFFER_6                               ADDRESS E1
DB 0xF3 										// RSVD_BUFFER_7                               ADDRESS E2
DB 0x00 										// RSVD_BUFFER_8                               ADDRESS E3
DB 0x00 										// RSVD_BUFFER_9                               ADDRESS E4
DB 0x03 										// RSVD_BUFFER_10                              ADDRESS E5
DB 0x00 										// RSVD_BUFFER_11                              ADDRESS E6
DB 0x0C 										// RSVD_BUFFER_12                              ADDRESS E7
DB 0x03 										// RSVD_BUFFER_13                              ADDRESS E8
DB 0x00 										// RSVD_BUFFER_14                              ADDRESS E9
DB 0x0C 										// RSVD_BUFFER_15                              ADDRESS EA
DB 0x03 										// RSVD_BUFFER_16                              ADDRESS EB
DB 0x00 										// RSVD_BUFFER_17                              ADDRESS EC
DB 0x0C 										// RSVD_BUFFER_18                              ADDRESS ED
DB 0x00 										// RSVD_BUFFER_18                              ADDRESS EE
DB 0x00 										// RSVD_BUFFER_20                              ADDRESS EF
DB 0x00,0x00,0x00,0x00,0x00,0x00,0x00,0x00 		// RSVD                                        ADDRESS F0 - F7
DB 0x00,0x00,0x00,0x00,0x00,0x00,0x00,0x00 		// Direct Control Byte                         ADDRESS F8 - FF
end


FS_DSP_LS_P86   0x0803BC00
DW 0x0003 										// CHIP MODE RW DSP Index Mode  SRAM Address 80 - 81
DW 0x0001 										// Trigger   RW DSP 5200C884  SRAM Address 82 - 83
DW 0xFFF8										// LSPRE CH0 RW DSP 580034D0  SRAM Address 84 - 85
DW 0xFFF8 										// LSPRE CH1 RW DSP 580037D0  SRAM Address 86 - 87
DW 0xFFF8										// LSPRE CH2 RW DSP 58003BD0  SRAM Address 88 - 89
DW 0xFFF8 										// LSPRE CH3 RW DSP 58003FD0  SRAM Address 8A - 8B
DW 0x007C 										// LSMAN CH0 RW DSP 580034D4  SRAM Address 8C - 8D
DW 0x007C 										// LSMAN CH1 RW DSP 580037D4  SRAM Address 8E - 8F
DW 0x007C 										// LSMAN CH2 RW DSP 58003BD4  SRAM Address 90 - 91
DW 0x007C 										// LSMAN CH3 RW DSP 58003FD4  SRAM Address 92 - 93
DW 0x0000 										// LSPO1 CH0 RW DSP 580034D8  SRAM Address 94 - 95
DW 0x0000 										// LSPO1 CH1 RW DSP 580037D8  SRAM Address 96 - 97
DW 0x0000 										// LSPO1 CH2 RW DSP 58003BD8  SRAM Address 98 - 99
DW 0x0000 										// LSPO1 CH3 RW DSP 58003FD8  SRAM Address 9A - 9B
DW 0x0000 										// LSPO2 CH0 RW DSP 580034DC  SRAM Address 9C - 9D
DW 0x0000 										// LSPO2 CH1 RW DSP 580037DC  SRAM Address 9E - 9F
DW 0x0000 										// LSPO2 CH2 RW DSP 58003BDC  SRAM Address A0 - A1
DW 0x0000 										// LSPO2 CH3 RW DSP 58003FDC  SRAM Address A2 - A3
DW 0x0000 										// LSPO3 CH0 RW DSP 580034E0  SRAM Address A4 - A5
DW 0x0000 										// LSPO3 CH1 RW DSP 580037E0  SRAM Address A6 - A7
DW 0x0000 										// LSPO3 CH2 RW DSP 58003BE0  SRAM Address A8 - A9
DW 0x0000 										// LSPO3 CH3 RW DSP 58003FE0  SRAM Address AA - AB
DW 0x0000 										// LSPE2 CH0 RW DSP 580034CC  SRAM Address AC - AD
DW 0x0000 										// LSPE2 CH1 RW DSP 580037CC  SRAM Address AE - AF
DW 0x0000 										// LSPE2 CH2 RW DSP 58003BCC  SRAM Address B0 - B1
DW 0x0000 										// LSPE2 CH3 RW DSP 58003FCC  SRAM Address B2 - B3
DW 0x0000 										// LSTPL CH0 RW DSP 580035CC  SRAM Address B4 - B5
DW 0x0000 										// LSTPL CH1 RW DSP 580075CC  SRAM Address B6 - B7
DW 0x0000 										// LSTPL CH2 RW DSP 5800B5CC  SRAM Address B8 - B9
DW 0x0000 										// LSTPL CH3 RW DSP 5800F5CC  SRAM Address BA - BB
DW 0x0100 										// LSRPL CH0 RW DSP 5800110C  SRAM Address BC - BD
DW 0x0100 										// LSRPL CH1 RW DSP 5800510C  SRAM Address BE - BF
DW 0x0100 										// LSRPL CH2 RW DSP 5800910C  SRAM Address C0 - C1
DW 0x0100 										// LSRPL CH3 RW DSP 5800D10C  SRAM Address C2 - C3
DB 0x00 										// LSL00 CH0 RW DSP 58001828  SRAM Address C4
DB 0x00 										// LSL01 CH0 RW DSP 5800182C  SRAM Address C5
DB 0x00 										// LSL10 CH0 RW DSP 58005828  SRAM Address C6
DB 0x00 										// LSL11 CH0 RW DSP 5800582C  SRAM Address C7
DB 0x00 										// LSL00 CH1 RW DSP 58009828  SRAM Address C8
DB 0x00 										// LSL01 CH1 RW DSP 5800982C  SRAM Address C9
DB 0x00 										// LSL10 CH1 RW DSP 5800D828  SRAM Address CA
DB 0x00 										// LSL11 CH1 RW DSP 5800D82C  SRAM Address CB
DB 0x00 										// LSL00 CH2 RW DSP 58001828  SRAM Address CC
DB 0x00 										// LSL01 CH2 RW DSP 5800182C  SRAM Address CD
DB 0x00 										// LSL10 CH2 RW DSP 58005828  SRAM Address CE
DB 0x00 										// LSL11 CH2 RW DSP 5800582C  SRAM Address CF
DB 0x00 										// LSL00 CH3 RW DSP 58009828  SRAM Address D0
DB 0x00 										// LSL01 CH3 RW DSP 5800982C  SRAM Address D1
DB 0x00 										// LSL10 CH3 RW DSP 5800D828  SRAM Address D2
DB 0x00 										// LSL11 CH3 RW DSP 5800D82C  SRAM Address D3
DW 0x5000	                                    // VCC CONFIG 0V75 RW DSP SRAM Address D4 - D5
DW 0x8000	                                    // VCC CONFIG 0V90 RW DSP SRAM Address D6 - D7
DW 0x0000	                                    // LS SNR CH0 SRAM Address D8 - D9
DW 0x0000	                                    // LS SNR CH1 SRAM Address DA - DB
DW 0x0000	                                    // LS SNR CH2 SRAM Address DC - DD
DW 0x0000	                                    // LS SNR CH3 SRAM Address DE - DF
DB 0x06	                                    	// LS Peaking Filter CH0 SRAM Address E0
DB 0x06	                                    	// LS Peaking Filter CH1 SRAM Address E1
DB 0x06	                                    	// LS Peaking Filter CH2 SRAM Address E2
DB 0x06	                                    	// LS Peaking Filter CH3 SRAM Address E3
DW 0x0000	                                    // LS Buffer SRAM Address E4 - E5
DW 0x0000	                                    // LS Buffer SRAM Address E6 - E7
DW 0x0000	                                    // LS Buffer SRAM Address E8 - E9
DW 0x0000	                                    // LS Buffer SRAM Address EA - EB
DW 0x0000	                                    // LS Buffer SRAM Address EC - ED
DW 0x0000	                                    // LS Buffer SRAM Address EE - EF
DW 0x0000	                                    // LS Buffer SRAM Address F0 - F1
DW 0x0000	                                    // LS Buffer SRAM Address F2 - F3
DW 0x0000	                                    // LS Buffer SRAM Address F4 - F5
DW 0x0000	                                    // LS Buffer SRAM Address F6 - F7
DW 0x0000	                                    // LS Buffer SRAM Address F8 - F9
DW 0x0000	                                    // LS Buffer SRAM Address FA - FB
DW 0x0000	                                    // LS Buffer SRAM Address FC - FD
DW 0x0000	                                    // LS Buffer SRAM Address FE - FF
end


FS_DSP_SS_P87   0x0803C000
DW 0xFFFC 										// SSPRE CH0 RW DSP 500344D0  SRAM Address 80 - 81
DW 0xFFFC 										// SSPRE CH1 RW DSP 501344D0  SRAM Address 82 - 83
DW 0xFFFC										// SSPRE CH2 RW DSP 502344D0  SRAM Address 84 - 85
DW 0xFFFC 										// SSPRE CH3 RW DSP 503344D0  SRAM Address 86 - 87
DW 0x0080 										// SSMAN CH0 RW DSP 500344D4  SRAM Address 88 - 89
DW 0x0080 										// SSMAN CH1 RW DSP 501344D4  SRAM Address 8A - 8B
DW 0x0080 										// SSMAN CH2 RW DSP 502344D4  SRAM Address 8C - 8D
DW 0x0080 										// SSMAN CH3 RW DSP 503344D4  SRAM Address 8E - 8F
DW 0xFFF8 										// SSPO1 CH0 RW DSP 500344D8  SRAM Address 90 - 91
DW 0xFFF8 										// SSPO1 CH1 RW DSP 501344D8  SRAM Address 92 - 93
DW 0xFFF8 										// SSPO1 CH2 RW DSP 502344D8  SRAM Address 94 - 95
DW 0xFFF8 										// SSPO1 CH3 RW DSP 503344D8  SRAM Address 96 - 97
DW 0x0000 										// SSPO2 CH0 RW DSP 500344DC  SRAM Address 98 - 99
DW 0x0000 										// SSPO2 CH1 RW DSP 501344DC  SRAM Address 9A - 9B
DW 0x0000 										// SSPO2 CH2 RW DSP 502344DC  SRAM Address 9C - 9D
DW 0x0000 										// SSPO2 CH3 RW DSP 503344DC  SRAM Address 9E - 9F
DW 0x0000 										// SSPO3 CH0 RW DSP 500344E0  SRAM Address A0 - A1
DW 0x0000 										// SSPO3 CH1 RW DSP 501344E0  SRAM Address A2 - A3
DW 0x0000 										// SSPO3 CH2 RW DSP 502344E0  SRAM Address A4 - A5
DW 0x0000 										// SSPO3 CH3 RW DSP 503344E0  SRAM Address A6 - A7
DW 0x0000 										// SSPE2 CH0 RW DSP 500344CC  SRAM Address A8 - A9
DW 0x0000 										// SSPE2 CH1 RW DSP 501344CC  SRAM Address AA - AB
DW 0x0000 										// SSPE2 CH2 RW DSP 502344CC  SRAM Address AC - AD
DW 0x0000 										// SSPE2 CH3 RW DSP 503344CC  SRAM Address AE - AF
DW 0x0000 										// SSTPL CH0 RW DSP 500345CC  SRAM Address B0 - B1
DW 0x0000 										// SSTPL CH1 RW DSP 501345CC  SRAM Address B2 - B3
DW 0x0000 										// SSTPL CH2 RW DSP 502345CC  SRAM Address B4 - B5
DW 0x0000 										// SSTPL CH3 RW DSP 503345CC  SRAM Address B6 - B7
DW 0x0000 										// SSRPL CH0 RW DSP 5003458C  SRAM Address B8 - B9
DW 0x0000 										// SSRPL CH1 RW DSP 5013458C  SRAM Address BA - BB
DW 0x0000 										// SSRPL CH2 RW DSP 5023458C  SRAM Address BC - BD
DW 0x0000 										// SSRPL CH3 RW DSP 5033458C  SRAM Address BE - BF
DW 0x0000 										// System_Side_RX_Info_Media_Type_CH01 SRAM Address C0 - C1
DW 0x0000 										// System_Side_RX_Info_Media_Type_CH23 SRAM Address C2 - C3
DW 0x0000 										// System_Side_RX_Info_Est_ChLoss_CH01 SRAM Address C4 - C5
DW 0x0000 										// System_Side_RX_Info_Est_ChLoss_CH23 SRAM Address C6 - C7
DW 0x0000 										// System_Side_RX_Info_Rx_Mode_CH01    SRAM Address C8 - C9
DW 0x0000 										// System_Side_RX_Info_Rx_Mode_CH23    SRAM Address CA - CB
DW 0x0000 										// SS Buffer SRAM Address CC - CD
DW 0x0000 										// SS Buffer SRAM Address CE - CF
DW 0x0000 										// SS Buffer SRAM Address D0 - D1
DW 0x0000 										// SS Buffer SRAM Address D2 - D3
DW 0x0000	                                    // SS Buffer SRAM Address D6 - D7
DW 0x0000	                                    // SS Buffer SRAM Address D8 - D9
DW 0x0000	                                    // SS Buffer SRAM Address DA - DB
DW 0x0000	                                    // SS Buffer SRAM Address DC - DD
DW 0x0000	                                    // SS Buffer SRAM Address DE - DF
DW 0x0000	                                    // SS Buffer SRAM Address E0 - E1
DW 0x0000	                                    // SS Buffer SRAM Address E2 - E3
DW 0x0000	                                    // SS Buffer SRAM Address E4 - E5
DW 0x0000	                                    // SS Buffer SRAM Address E6 - E7
DW 0x0000	                                    // SS Buffer SRAM Address E8 - E9
DW 0x0000	                                    // SS Buffer SRAM Address EA - EB
DW 0x0000	                                    // SS Buffer SRAM Address EC - ED
DW 0x0000	                                    // SS Buffer SRAM Address EE - EF
DW 0x0000	                                    // SS Buffer SRAM Address F0 - F1
DW 0x0000	                                    // SS Buffer SRAM Address F2 - F3
DW 0x0000	                                    // SS Buffer SRAM Address F4 - F5
DW 0x0000	                                    // SS Buffer SRAM Address F6 - F7
DW 0x0000	                                    // SS Buffer SRAM Address F8 - F9
DW 0x0000	                                    // SS Buffer SRAM Address FA - FB
DW 0x0000	                                    // SS Buffer SRAM Address FC - FD
DW 0x0000	                                    // SS Buffer SRAM Address FE - FF
end

FS_Ibias0_PA0 0x0803CC00
//   00   01   02   03   04   05   06   07
DB 0x23,0x23,0x23,0x23,0x23,0x23,0x23,0x23      // 0 Bias0  0x80 - 0x87
DB 0x23,0x23,0x23,0x23,0x23,0x23,0x23,0x23      // 1 Bias0  0x88 - 0x8F
DB 0x23,0x23,0x23,0x23,0x23,0x23,0x23,0x23      // 2 Bias0  0x90 - 0x97
DB 0x23,0x23,0x24,0x24,0x25,0x25,0x26,0x27      // 3 Bias0  0x98 - 0x9F
DB 0x27,0x28,0x29,0x29,0x2A,0x2A,0x2B,0x2B      // 4 Bias0  0xA0 - 0xA7
DB 0x2B,0x2B,0x2B,0x2B,0x2B,0x2B,0x2B,0x2B      // 5 Bias0  0xA8 - 0xAF
DB 0x2B,0x2B,0x2B,0x2B,0x2B,0x2B,0x2B,0x2B      // 6 Bias0  0xB0 - 0xB7
DB 0x2B,0x2B,0x2B,0x2B,0x2B,0x2B,0x2B,0x2B      // 7 Bias0  0xB8 - 0xBF
DB 0x2B,0x2B,0x2B,0x2B,0x2B,0x2B,0x2B,0x2B      // 8 Bias0  0xC0 - 0xC7
DB 0x2B,0x2B,0x2B,0x2B,0x2B,0x2B,0x2B,0x2B      // 9 Bias0  0xC8 - 0xCF
DB 0x2B,0x2B,0x2B,0x2B,0x2B,0x2B,0x2B,0x2B      // A Bias0  0xD0 - 0xD7
DB 0x2B,0x2B,0x2B,0x2B,0x2B,0x2B,0x2B,0x2B      // B Bias0  0xD8 - 0xDF
DB 0x2B,0x2B,0x2B,0x2B,0x2B,0x2B,0x2B,0x2B      // C Bias0  0xE0 - 0xE7
DB 0x2B,0x2B,0x2B,0x2B,0x2B,0x2B,0x2B,0x2B      // D Bias0  0xE8 - 0xEF
DB 0x2B,0x2B,0x2B,0x2B,0x2B,0x2B,0x2B,0x2B      // E Bias0  0xF0 - 0xF7
DB 0x2B,0x2B,0x2B,0x2B,0x2B,0x2B,0x2B,0x2B      // F Bias0  0xF8 - 0xFF
end

FS_Ibias1_PA1 0x0803D000
//   00   01   02   03   04   05   06   07
DB 0x23,0x23,0x23,0x23,0x23,0x23,0x23,0x23      // 0 Bias0  0x80 - 0x87
DB 0x23,0x23,0x23,0x23,0x23,0x23,0x23,0x23      // 1 Bias0  0x88 - 0x8F
DB 0x23,0x23,0x23,0x23,0x23,0x23,0x23,0x23      // 2 Bias0  0x90 - 0x97
DB 0x23,0x23,0x24,0x24,0x25,0x25,0x26,0x27      // 3 Bias0  0x98 - 0x9F
DB 0x27,0x28,0x29,0x29,0x2A,0x2A,0x2B,0x2B      // 4 Bias0  0xA0 - 0xA7
DB 0x2B,0x2B,0x2B,0x2B,0x2B,0x2B,0x2B,0x2B      // 5 Bias0  0xA8 - 0xAF
DB 0x2B,0x2B,0x2B,0x2B,0x2B,0x2B,0x2B,0x2B      // 6 Bias0  0xB0 - 0xB7
DB 0x2B,0x2B,0x2B,0x2B,0x2B,0x2B,0x2B,0x2B      // 7 Bias0  0xB8 - 0xBF
DB 0x2B,0x2B,0x2B,0x2B,0x2B,0x2B,0x2B,0x2B      // 8 Bias0  0xC0 - 0xC7
DB 0x2B,0x2B,0x2B,0x2B,0x2B,0x2B,0x2B,0x2B      // 9 Bias0  0xC8 - 0xCF
DB 0x2B,0x2B,0x2B,0x2B,0x2B,0x2B,0x2B,0x2B      // A Bias0  0xD0 - 0xD7
DB 0x2B,0x2B,0x2B,0x2B,0x2B,0x2B,0x2B,0x2B      // B Bias0  0xD8 - 0xDF
DB 0x2B,0x2B,0x2B,0x2B,0x2B,0x2B,0x2B,0x2B      // C Bias0  0xE0 - 0xE7
DB 0x2B,0x2B,0x2B,0x2B,0x2B,0x2B,0x2B,0x2B      // D Bias0  0xE8 - 0xEF
DB 0x2B,0x2B,0x2B,0x2B,0x2B,0x2B,0x2B,0x2B      // E Bias0  0xF0 - 0xF7
DB 0x2B,0x2B,0x2B,0x2B,0x2B,0x2B,0x2B,0x2B      // F Bias0  0xF8 - 0xFF
end

FS_Ibias2_PA2 0x0803D400
//   00   01   02   03   04   05   06   07
DB 0x23,0x23,0x23,0x23,0x23,0x23,0x23,0x23      // 0 Bias0  0x80 - 0x87
DB 0x23,0x23,0x23,0x23,0x23,0x23,0x23,0x23      // 1 Bias0  0x88 - 0x8F
DB 0x23,0x23,0x23,0x23,0x23,0x23,0x23,0x23      // 2 Bias0  0x90 - 0x97
DB 0x23,0x23,0x24,0x24,0x25,0x25,0x26,0x27      // 3 Bias0  0x98 - 0x9F
DB 0x27,0x28,0x29,0x29,0x2A,0x2A,0x2B,0x2B      // 4 Bias0  0xA0 - 0xA7
DB 0x2B,0x2B,0x2B,0x2B,0x2B,0x2B,0x2B,0x2B      // 5 Bias0  0xA8 - 0xAF
DB 0x2B,0x2B,0x2B,0x2B,0x2B,0x2B,0x2B,0x2B      // 6 Bias0  0xB0 - 0xB7
DB 0x2B,0x2B,0x2B,0x2B,0x2B,0x2B,0x2B,0x2B      // 7 Bias0  0xB8 - 0xBF
DB 0x2B,0x2B,0x2B,0x2B,0x2B,0x2B,0x2B,0x2B      // 8 Bias0  0xC0 - 0xC7
DB 0x2B,0x2B,0x2B,0x2B,0x2B,0x2B,0x2B,0x2B      // 9 Bias0  0xC8 - 0xCF
DB 0x2B,0x2B,0x2B,0x2B,0x2B,0x2B,0x2B,0x2B      // A Bias0  0xD0 - 0xD7
DB 0x2B,0x2B,0x2B,0x2B,0x2B,0x2B,0x2B,0x2B      // B Bias0  0xD8 - 0xDF
DB 0x2B,0x2B,0x2B,0x2B,0x2B,0x2B,0x2B,0x2B      // C Bias0  0xE0 - 0xE7
DB 0x2B,0x2B,0x2B,0x2B,0x2B,0x2B,0x2B,0x2B      // D Bias0  0xE8 - 0xEF
DB 0x2B,0x2B,0x2B,0x2B,0x2B,0x2B,0x2B,0x2B      // E Bias0  0xF0 - 0xF7
DB 0x2B,0x2B,0x2B,0x2B,0x2B,0x2B,0x2B,0x2B      // F Bias0  0xF8 - 0xFF
end

FS_Ibias3_PA3 0x0803D800
//   00   01   02   03   04   05   06   07
DB 0x23,0x23,0x23,0x23,0x23,0x23,0x23,0x23      // 0 Bias0  0x80 - 0x87
DB 0x23,0x23,0x23,0x23,0x23,0x23,0x23,0x23      // 1 Bias0  0x88 - 0x8F
DB 0x23,0x23,0x23,0x23,0x23,0x23,0x23,0x23      // 2 Bias0  0x90 - 0x97
DB 0x23,0x23,0x24,0x24,0x25,0x25,0x26,0x27      // 3 Bias0  0x98 - 0x9F
DB 0x27,0x28,0x29,0x29,0x2A,0x2A,0x2B,0x2B      // 4 Bias0  0xA0 - 0xA7
DB 0x2B,0x2B,0x2B,0x2B,0x2B,0x2B,0x2B,0x2B      // 5 Bias0  0xA8 - 0xAF
DB 0x2B,0x2B,0x2B,0x2B,0x2B,0x2B,0x2B,0x2B      // 6 Bias0  0xB0 - 0xB7
DB 0x2B,0x2B,0x2B,0x2B,0x2B,0x2B,0x2B,0x2B      // 7 Bias0  0xB8 - 0xBF
DB 0x2B,0x2B,0x2B,0x2B,0x2B,0x2B,0x2B,0x2B      // 8 Bias0  0xC0 - 0xC7
DB 0x2B,0x2B,0x2B,0x2B,0x2B,0x2B,0x2B,0x2B      // 9 Bias0  0xC8 - 0xCF
DB 0x2B,0x2B,0x2B,0x2B,0x2B,0x2B,0x2B,0x2B      // A Bias0  0xD0 - 0xD7
DB 0x2B,0x2B,0x2B,0x2B,0x2B,0x2B,0x2B,0x2B      // B Bias0  0xD8 - 0xDF
DB 0x2B,0x2B,0x2B,0x2B,0x2B,0x2B,0x2B,0x2B      // C Bias0  0xE0 - 0xE7
DB 0x2B,0x2B,0x2B,0x2B,0x2B,0x2B,0x2B,0x2B      // D Bias0  0xE8 - 0xEF
DB 0x2B,0x2B,0x2B,0x2B,0x2B,0x2B,0x2B,0x2B      // E Bias0  0xF0 - 0xF7
DB 0x2B,0x2B,0x2B,0x2B,0x2B,0x2B,0x2B,0x2B      // F Bias0  0xF8 - 0xFF
end

FS_Calibration 0x0803EC00
DB 0x01 										// VCC_SCALEM        0x80
DB 0x00 			     						// VCC_SCALEL        0x81
DW 0x0000                                       // VCC_OFFSET        0x82 - 0x83
DB 0x01 										// TempC_SCALEM      0x84
DB 0x00 			     						// TempC_SCALEL      0x85
DB 0x00                                         // TEmpC_OFFSET      0x86
DB 0x01 										// IBisa0_SCALEM     0x87
DB 0x00 			     						// IBisa0_SCALEL     0x88
DW 0x0000                                       // IBisa0_OFFSET     0x89 - 0x8A
DB 0x01 										// IBisa1_SCALEM     0x8B
DB 0x00 			     						// IBisa1_SCALEL     0x8C
DW 0x0000                                       // IBisa1_OFFSET     0x8D - 0x8E
DB 0x01 										// IBisa2_SCALEM     0x8F
DB 0x00 			     						// IBisa2_SCALEL     0x90
DW 0x0000                                       // IBisa2_OFFSET     0x91 - 0x92
DB 0x01 										// IBisa3_SCALEM     0x93
DB 0x00 			     						// IBisa3_SCALEL     0x94
DW 0x0000                                       // IBisa3_OFFSET     0x95 - 0x96
DB 0x01 										// TXP0_SCALEM       0x97
DB 0x00 			     						// TXP0_SCALEL       0x98
DW 0x0000                                       // TXP0_OFFSET       0x99 - 0x9A
DB 0x01 										// TXP1_SCALEM       0x9B
DB 0x00 			     						// TXP1_SCALEL       0x9C
DW 0x0000                                       // TXP1_OFFSET       0x9D - 0x9E
DB 0x01 										// TXP2_SCALEM       0x9F
DB 0x00 			     						// TXP2_SCALEL       0xA0
DW 0x0000                                       // TXP2_OFFSET       0xA1 - 0xA2
DB 0x01 										// TXP3_SCALEM       0xA3
DB 0x00 			     						// TXP3_SCALEL       0xA4
DW 0x0000                                       // TXP3_OFFSET       0xA5 - 0xA6
DB 0x01 										// RXP0_SCALEM       0xA7
DB 0x00 			     						// RXP0_SCALEL       0xA8
DW 0x0000                                       // RXP0_OFFSET       0xA9 - 0xAA
DB 0x01 										// RXP1_SCALEM       0xAB
DB 0x00 			     						// RXP1_SCALEL       0xAC
DW 0x0000                                       // RXP1_OFFSET       0xAD - 0xAE
DB 0x01 										// RXP2_SCALEM       0xAF
DB 0x00 			     						// RXP2_SCALEL       0xB0
DW 0x0000                                       // RXP2_OFFSET       0xB1 - 0xB2
DB 0x01 										// RXP3_SCALEM       0xB3
DB 0x00 			     						// RXP3_SCALEL       0xB4
DW 0x0000                                       // RXP3_OFFSET       0xB5 - 0xB6
DW 0x0080                                       // RX0LOS_Assert     0xB7 - 0xB8
DW 0x0100                                       // RX0LOS_DeAssert   0xB9 - 0xBA
DW 0x0080                                       // RX1LOS_Assert     0xBB - 0xBC
DW 0x0100                                       // RX1LOS_DeAssert   0xBD - 0xBE
DW 0x0080                                       // RX2LOS_Assert     0xBF - 0xC0
DW 0x0100                                       // RX2LOS_DeAssert   0xC1 - 0xC2
DW 0x0080                                       // RX3LOS_Assert     0xC3 - 0xC4
DW 0x0100                                       // RX3LOS_DeAssert   0xC5 - 0xC6
DB 0x46                                         // High Temp Setting 0xC7
DB 0x00                                         // Low  Temp Setting 0xC8
DB 0x01                                         // 0xC9  LOS DC or AC mode
DB 0x00                                         // 0xCA  RSSI ADC or 37044 reg.
DB 0x01                                         // 0xCB
DB 0x01,0x00,0x00,0x00                          // 0xCC - 0xCF
DB 0x00,0x22,0x22,0x22,0x22,0x33,0x33,0x33      // 0xD0 - 0xD7
DB 0x33,0x55,0x55,0x55,0x55,0x00,0x00,0x00      // 0xD8 - 0xDF
DB 0x00,0x00,0x00,0x00,0x00,0x00,0x00,0x00      // 0xE0 - 0xE7
DB 0x00,0x00,0x00,0x00,0x00,0x00,0x00,0x00      // 0xE8 - 0xEF
DB 0x00,0x00,0x00,0x00,0x00,0x00,0x00,0x00      // 0xF0 - 0xF7
DB 0x00,0x00,0x00,0x00,0x00,0x00,0x00,0x00      // 0xF8 - 0xFF
end

FS_MSA_Option 0x0803F000
DB 0x0C 										// Input EQUALIZATION 1   dB       0x80
DB 0x13 			     						// Input EQUALIZATION 2   dB       0x81
DB 0x16 										// Input EQUALIZATION 2.5 dB       0x82
DB 0x19 			     						// Input EQUALIZATION 3   d        0x83
DB 0x1C 			     						// Input EQUALIZATION 3.5 dB       0x84
DB 0x1F 										// Input EQUALIZATION 4   dB       0x85
DB 0x23 			     						// Input EQUALIZATION 4.5 dB       0x86
DB 0x26 			     						// Input EQUALIZATION 5   dB       0x87
DB 0x29 			     						// Input EQUALIZATION 5.5 dB       0x88
DB 0x2C 										// Input EQUALIZATION 6   dB       0x89
DB 0x2F 			     						// Input EQUALIZATION 6.5 dB       0x8A
DB 0x32 			     						// Input EQUALIZATION 7   dB       0x8B
DB 0x36 			     						// Input EQUALIZATION 7.5 dB       0x8C
DB 0x39 			     						// Input EQUALIZATION 8   dB       0x8D
DB 0x3C 										// Input EQUALIZATION 8.5 dB       0x8E
DB 0x3F 			     						// Input EQUALIZATION 9   dB       0x8F
DB 0x00 			     						// RX Pre Cursor      NO Emphasis  0x90
DB 0xFC 										// RX Pre Cursor      1  dB        0x91
DB 0xF8 			     						// RX Pre Cursor      2  dB        0x92
DB 0xF4 			     						// RX Pre Cursor      3  dB        0x93
DB 0xF0 										// RX Pre Cursor      4  dB        0x94
DB 0xEC 			     						// RX Pre Cursor      5  dB        0x95
DB 0xE8 			     						// RX Pre Cursor      6  dB        0x96
DB 0xE4 			     						// RX Pre Cursor      7  dB        0x97
DB 0xE4 										// RX Pre Cursor      8  dB        0x98
DB 0xE4 			     						// RX Pre Cursor      9  dB        0x99
DB 0xE4 			     						// RX Pre Cursor      10 dB        0x9A
DB 0x00 			     						// RX Pre Cursor      11 dB        0x9B
DB 0x00 			     						// RX Pre Cursor      12 dB        0x9C
DB 0x00 										// RX Pre Cursor      13 dB        0x9D
DB 0x00 			     						// RX Pre Cursor      14 dB        0x9E
DB 0x00 			     						// RX Pre Cursor      15 dB        0x9F
DB 0x50 			     						// OUTPUT OP_AMP_0    300          0xA0
DB 0x64 										// OUTPUT OP_AMP_1    400          0xA1
DB 0x7C 			     						// OUTPUT OP_AMP_2    600          0xA2
DB 0x94 			     						// OUTPUT OP_AMP_3    800          0xA3
DB 0x00 										// OUTPUT OP_AMP      000          0xA4
DB 0x00 			     						// OUTPUT OP_AMP      000          0xA5
DB 0x00 			     						// OUTPUT OP_AMP      000          0xA6
DB 0x00 			     						// OUTPUT OP_AMP      000          0xA7
DB 0x00 										// OUTPUT OP_AMP      000          0xA8
DB 0x00 			     						// OUTPUT OP_AMP      000          0xA9
DB 0x00 			     						// OUTPUT OP_AMP      000          0xAA
DB 0x00 			     						// OUTPUT OP_AMP      000          0xAB
DB 0x00 			     						// OUTPUT OP_AMP      000          0xAC
DB 0x00 										// OUTPUT OP_AMP      000          0xAD
DB 0x00 			     						// OUTPUT OP_AMP      000          0xAE
DB 0x00                                         // OUTPUT OP_AMP       000         0xAF
DB 0x93,0x78,0xCC,0xAE,0x00,0x00,0x00,0x00      // Level 1 PW         0xB0 - 0xB8
DB 0x00,0x00,0x00,0x00,0x00,0x00,0x00,0x00      // Level 1 PW         0xB8 - 0xBF
DB 0x00 			     						// RX Post-Cursor     NO Emphasis  0xC0
DB 0xFC 										// RX Post-Cursor     1  dB        0xC1
DB 0xF8 			     						// RX Post-Cursor     2  dB        0xC2
DB 0xF4 			     						// RX Post-Cursor     3  dB        0xC3
DB 0xF0 										// RX Post-Cursor     4  dB        0xC4
DB 0xEC 			     						// RX Post-Cursor     5  dB        0xC5
DB 0xE8 			     						// RX Post-Cursor     6  dB        0xC6
DB 0xE4 			     						// RX Post-Cursor     7  dB        0xC7
DB 0xE4 										// RX Post-Cursor     8  dB        0xC8
DB 0xE4 			     						// RX Post-Cursor     9  dB        0xC9
DB 0xE4 			     						// RX Post-Cursor     10 dB        0xCA
DB 0x00 			     						// RX Post-Cursor     11 dB        0xCB
DB 0x00 			     						// RX Post-Cursor     12 dB        0xCC
DB 0x00 										// RX Post-Cursor     13 dB        0xCD
DB 0x00 			     						// RX Post-Cursor     14 dB        0xCE
DB 0x00 			     						// RX Post-Cursor     15 dB        0xCF
DB 0x00,0x00,0x00,0x00,0x00,0x00,0x00,0x00      // 0xD0 - 0xD7
DB 0x00,0x00,0x00,0x00,0x00,0x00,0x00,0x00      // 0xD8 - 0xDF
DB 0x00,0x00,0x00,0x00,0x00,0x00,0x00,0x00      // 0xE0 - 0xE7
DB 0x00,0x00,0x00,0x00,0x00,0x00,0x00,0x00      // 0xE8 - 0xEF
DB 0x00,0x00,0x00,0x00,0x00,0x00,0x00,0x00      // 0xF0 - 0xF7
DB 0x00,0x00,0x00,0x00,0x00,0x00,0x00,0x00      // 0xF8 - 0xFF
end
			

